<?xml version="1.0" encoding="UTF-8"?>
<testng-results skipped="0" failed="0" ignored="0" total="2" passed="2">
  <reporter-output>
  </reporter-output>
  <suite name="Smoke Test Suite" duration-ms="62619" started-at="2024-01-04T08:01:14 IST" finished-at="2024-01-04T08:02:16 IST">
    <groups>
    </groups>
    <test name="LoginTest" duration-ms="62619" started-at="2024-01-04T08:01:14 IST" finished-at="2024-01-04T08:02:16 IST">
      <class name="com.saucelabs.tests.Login.LoginTests">
        <test-method status="PASS" signature="beforeMethod()[pri:0, instance:com.saucelabs.tests.Login.LoginTests@48974e45]" name="beforeMethod" is-config="true" duration-ms="36578" started-at="2024-01-04T08:01:14 IST" finished-at="2024-01-04T08:01:50 IST">
          <reporter-output>
          </reporter-output>
        </test-method> <!-- beforeMethod -->
        <test-method status="PASS" signature="loginToSaucelabsTest()[pri:1, instance:com.saucelabs.tests.Login.LoginTests@48974e45]" name="loginToSaucelabsTest" duration-ms="15517" started-at="2024-01-04T08:01:50 IST" description="loginto saucelabs" finished-at="2024-01-04T08:02:06 IST">
          <reporter-output>
          </reporter-output>
        </test-method> <!-- loginToSaucelabsTest -->
        <test-method status="PASS" signature="afterMethod()[pri:0, instance:com.saucelabs.tests.Login.LoginTests@48974e45]" name="afterMethod" is-config="true" duration-ms="1650" started-at="2024-01-04T08:02:06 IST" finished-at="2024-01-04T08:02:08 IST">
          <reporter-output>
          </reporter-output>
        </test-method> <!-- afterMethod -->
        <test-method status="PASS" signature="beforeMethod()[pri:0, instance:com.saucelabs.tests.Login.LoginTests@48974e45]" name="beforeMethod" is-config="true" duration-ms="7586" started-at="2024-01-04T08:02:08 IST" finished-at="2024-01-04T08:02:15 IST">
          <reporter-output>
          </reporter-output>
        </test-method> <!-- beforeMethod -->
        <test-method status="PASS" signature="invalidLoginTest()[pri:2, instance:com.saucelabs.tests.Login.LoginTests@48974e45]" name="invalidLoginTest" duration-ms="547" started-at="2024-01-04T08:02:15 IST" description="Login Test with Invalid credentials" finished-at="2024-01-04T08:02:16 IST">
          <reporter-output>
          </reporter-output>
        </test-method> <!-- invalidLoginTest -->
        <test-method status="PASS" signature="afterMethod()[pri:0, instance:com.saucelabs.tests.Login.LoginTests@48974e45]" name="afterMethod" is-config="true" duration-ms="500" started-at="2024-01-04T08:02:16 IST" finished-at="2024-01-04T08:02:16 IST">
          <reporter-output>
          </reporter-output>
        </test-method> <!-- afterMethod -->
        <test-method status="PASS" signature="afterClass()[pri:0, instance:com.saucelabs.tests.Login.LoginTests@48974e45]" name="afterClass" is-config="true" duration-ms="1" started-at="2024-01-04T08:02:16 IST" finished-at="2024-01-04T08:02:16 IST">
          <reporter-output>
          </reporter-output>
        </test-method> <!-- afterClass -->
      </class> <!-- com.saucelabs.tests.Login.LoginTests -->
    </test> <!-- LoginTest -->
  </suite> <!-- Smoke Test Suite -->
</testng-results>
